teste.vcd
$date
   Fri Jan 09 14:10:00 2026
$end
$version
   Gerado por Gemini AI - Exemplo Complexo
$end
$timescale
   1ns
$end
$scope module system_soc $end
$var wire 1 ! clk $end
$var wire 1 " rst_n $end
$var wire 1 # irq_trigger $end
$var wire 1 $ pwm_out $end
$var wire 8 % counter [7:0] $end
$upscope $end
$enddefinitions $end

#0
$dumpvars
0!
0"
0#
0$
b00000000 %
$end

$comment --- Inicio do Reset (Reset ativo por 20ns) --- $end

#5
1!

#10
0!

#15
1!

#20
0!
1"
$comment Reset solto, o contador comeca a subir $end

$comment --- Ciclo 1: Contador = 1 --- $end
#25
1!
b00000001 %
1$

#30
0!

$comment --- Ciclo 2: Contador = 2 --- $end
#35
1!
b00000010 %

#40
0!

$comment --- Ciclo 3: Contador = 3, PWM cai (Duty Cycle Curto) --- $end
#45
1!
b00000011 %
0$

#50
0!

$comment --- Ciclo 4: Contador = 4 --- $end
#55
1!
b00000100 %

#60
0!
1$

$comment --- Ciclo 5: Contador = 5 (Disparo da Interrupcao IRQ) --- $end
#65
1!
b00000101 %
1#

#70
0!
0#
$comment IRQ durou apenas meio ciclo $end

$comment --- Ciclo 6: Contador = 6 --- $end
#75
1!
b00000110 %

#80
0!

$comment --- Ciclo 7: Contador = 7 (PWM fica alto mais tempo agora) --- $end
#85
1!
b00000111 %

#90
0!

$comment --- Ciclo 8: Contador = 8 --- $end
#95
1!
b00001000 %

#100
0!

$comment --- Ciclo 9: Contador = 9 --- $end
#105
1!
b00001001 %

#110
0!

$comment --- Ciclo 10: Contador = 10, PWM cai --- $end
#115
1!
b00001010 %
0$

#120
0!

$comment --- Ciclo 11: Contador = 11, Salto grande no bus para teste visual --- $end
#125
1!
b11111111 %

