examples/proc_fft_tb_complex.vcd
$date
	Sat Jun 06 03:37:08 2026
$end
$version
	GTKWave Analyzer v3.4.0 (w)1999-2022 BSI
$end
$timescale
	1ps
$end
$scope module proc_fft_tb $end
$scope module proc $end
$var reg 23 ' out_sig_1[22:0] $end
$var reg 23 & valr2[22:0] $end
$var reg 20 # linetabs[19:0] $end
$var reg 23 $ me1_f_fft_v_N_e_[22:0] $end
$var reg 23 % me1_f_fft_v_ind_e_[22:0] $end
$var reg 23 ( me1_f_fft_v_sind_e_[22:0] $end
$var wire 62 " comp_me3_f_fft_v_temp_e_[61:0] $end
$upscope $end
$upscope $end
$enddefinitions $end
#0
$dumpvars
b11111111111111111111 #
b0 '
b10000000001100xxxxxxxxxxxxxxxxxxxxxx0xxxxxxxxxxxxxxxxxxxxxx "
b0 $
b0 %
b0 &
b0 (
$end
#35000
b11111111111111111110 #
b1 &
#45000
b1100111 &
b110001 #
#55000
b1101000 &
#65000
b1101001 &
#75000
b1101010 &
#85000
b1101011 &
#95000
b1101100 &
#105000
b1101101 &
#115000
b1101110 &
b110010 #
#125000
b1101111 &
#135000
b1110000 &
#145000
b1110001 &
#155000
b1110010 &
#165000
b1110011 &
#175000
b1110100 &
#185000
b1110101 &
b110011 #
#195000
b1110110 &
#205000
b1110111 &
#215000
b1111000 &
#225000
b1111001 &
#235000
b1111010 &
#245000
b1111011 &
#255000
b1111100 &
b110100 #
#265000
b1111101 &
#275000
b1111110 &
#285000
b1111111 &
#295000
b10000000 &
#305000
b10000001 &
#315000
b10000010 &
#325000
b10000011 &
b110110 #
#335000
b10000100 &
#345000
b10000101 &
#355000
b10000110 &
#365000
b10000111 &
#375000
b10001000 &
#385000
b10001001 &
#395000
b10001010 &
b110111 #
#405000
b10001011 &
#415000
b10001100 &
#425000
b10001101 &
#435000
b10001110 &
#445000
b10001111 &
#455000
b10010000 &
#465000
b10010001 &
b111000 #
#475000
b10010010 &
#485000
b10010011 &
#495000
b10010100 &
#505000
b10010101 &
#515000
b10010110 &
#525000
b10010111 &
#535000
b10011000 &
b111001 #
#545000
b10011001 &
#555000
b10011010 &
#565000
b10011011 &
#575000
b10011100 &
#585000
b10011101 &
#595000
b10011110 &
#605000
b10011111 &
b111010 #
#615000
b10100000 &
#625000
b10100001 &
#635000
b10100010 &
#645000
b10100011 &
#655000
b10100100 &
#665000
b10100101 &
#675000
b10100110 &
b111011 #
#685000
b10100111 &
#695000
b10101000 &
#705000
b10101001 &
#715000
b10101010 &
#725000
b10101011 &
#735000
b10101100 &
#745000
b10101101 &
b111100 #
#755000
b10101110 &
#765000
b10101111 &
#775000
b10110000 &
#785000
b10110001 &
#795000
b10110010 &
#805000
b10110011 &
#815000
b10110100 &
b111101 #
#825000
b10110101 &
#835000
b10110110 &
#845000
b10110111 &
#855000
b10111000 &
#865000
b10111001 &
#875000
b10111010 &
#885000
b10111011 &
b111111 #
#895000
b10111100 &
#905000
b11 &
b1111 #
b1000 $
#915000
b10011 #
b100 &
#925000
b101 &
#935000
b110 &
b10101 #
#945000
b111 &
#955000
b1000 &
#965000
b1001 &
b10111 #
#975000
b1010 &
#985000
b1011 &
#995000
b1100 &
b11000 #
#1005000
b1101 &
#1015000
b1110 &
b11001 #
#1025000
b1111 &
#1035000
b10000 &
b11010 #
#1045000
b10001 &
#1055000
b10010 &
b11011 #
#1065000
b10011 &
#1075000
b10100 &
#1085000
b10101 &
b11101 #
#1095000
b10110 &
#1105000
b10111 &
b11110 #
#1115000
b11000 &
#1125000
b11001 &
#1135000
b11010 &
b100000 #
#1145000
b11011 &
#1155000
b11100 &
#1165000
b11101 &
b100001 #
#1175000
b11110 &
#1185000
b11111 &
#1195000
b100000 &
#1205000
b100001 &
#1215000
b100010 &
#1225000
b100011 &
#1235000
b100100 &
#1245000
b100101 &
#1255000
b100110 &
#1265000
b100111 &
#1275000
b101000 &
#1285000
b101001 &
#1295000
b101010 &
#1305000
b101011 &
#1315000
b101100 &
#1325000
b101101 &
#1335000
b101110 &
#1345000
b101111 &
#1355000
b110000 &
#1365000
b110001 &
#1375000
b110010 &
b10000000001100xxxxxxxxxxxxxxxxxxxxxx01000000000000000000000 "
#1385000
b10000000001100110011101000000000000001000000000000000000000 "
b110011 &
#1395000
b110100 &
b100010 #
#1405000
b110101 &
#1415000
b110110 &
#1425000
b110111 &
#1435000
b111000 &
#1445000
b111001 &
#1455000
b111010 &
#1465000
b111011 &
#1475000
b111100 &
#1485000
b111101 &
#1495000
b111110 &
#1505000
b111111 &
#1515000
b1000000 &
#1525000
b1000001 &
#1535000
b1000010 &
#1545000
b1000011 &
#1555000
b1000100 &
#1565000
b1000101 &
b100011 #
#1575000
b1000110 &
#1585000
b1000111 &
#1595000
b1001000 &
#1605000
b1001001 &
#1615000
b1001010 &
#1625000
b1001011 &
#1635000
b1001100 &
#1645000
b1001101 &
#1655000
b1001110 &
#1665000
b1001111 &
#1675000
b1010000 &
#1685000
b1010001 &
#1695000
b1010010 &
#1705000
b1010011 &
#1715000
b1010100 &
#1725000
b1010101 &
#1735000
b1010110 &
b100100 #
#1745000
b1010111 &
#1755000
b1011000 &
#1765000
b1011001 &
b100101 #
#1775000
b1011010 &
#1785000
b1011011 &
b1 %
#1795000
b1011100 &
b100110 #
#1805000
b11110 #
b10111 &
#1815000
b11000 &
#1825000
b11001 &
#1835000
b11010 &
b100000 #
#1845000
b11011 &
#1855000
b11100 &
#1865000
b11101 &
b100001 #
#1875000
b11110 &
#1885000
b11111 &
#1895000
b100000 &
#1905000
b100001 &
#1915000
b100010 &
#1925000
b100011 &
#1935000
b100100 &
#1945000
b100101 &
#1955000
b100110 &
#1965000
b100111 &
#1975000
b101000 &
#1985000
b101001 &
#1995000
b101010 &
#2005000
b101011 &
#2015000
b101100 &
#2025000
b101101 &
#2035000
b101110 &
#2045000
b101111 &
#2055000
b110000 &
#2065000
b110001 &
#2075000
b110010 &
#2085000
b110011 &
b10000000001100110011111000000000000001000000000000000000000 "
#2095000
b110100 &
b100010 #
#2105000
b110101 &
#2115000
b110110 &
#2125000
b110111 &
#2135000
b111000 &
#2145000
b111001 &
#2155000
b111010 &
#2165000
b111011 &
#2175000
b111100 &
#2185000
b111101 &
#2195000
b111110 &
#2205000
b111111 &
#2215000
b1000000 &
#2225000
b1000001 &
#2235000
b1000010 &
#2245000
b1000011 &
#2255000
b1000100 &
#2265000
b1000101 &
b100011 #
#2275000
b1000110 &
#2285000
b1000111 &
#2295000
b1001000 &
#2305000
b1001001 &
#2315000
b1001010 &
#2325000
b1001011 &
#2335000
b1001100 &
#2345000
b1001101 &
#2355000
b1001110 &
#2365000
b1001111 &
#2375000
b1010000 &
#2385000
b1010001 &
#2395000
b1010010 &
#2405000
b1010011 &
#2415000
b1010100 &
#2425000
b1010101 &
#2435000
b1010110 &
b100100 #
#2445000
b1010111 &
#2455000
b1011000 &
#2465000
b1011001 &
b100101 #
#2475000
b1011010 &
#2485000
b1011011 &
b10 %
#2495000
b1011100 &
b100110 #
#2505000
b11110 #
b10111 &
#2515000
b11000 &
#2525000
b11001 &
#2535000
b11010 &
b100000 #
#2545000
b11011 &
#2555000
b11100 &
#2565000
b11101 &
b100001 #
#2575000
b11110 &
#2585000
b11111 &
#2595000
b100000 &
#2605000
b100001 &
#2615000
b100010 &
#2625000
b100011 &
#2635000
b100100 &
#2645000
b100101 &
#2655000
b100110 &
#2665000
b100111 &
#2675000
b101000 &
#2685000
b101001 &
#2695000
b101010 &
#2705000
b101011 &
#2715000
b101100 &
#2725000
b101101 &
#2735000
b101110 &
#2745000
b101111 &
#2755000
b110000 &
#2765000
b110001 &
#2775000
b110010 &
#2785000
b110011 &
b10000000001100110011110000000000000001000000000000000000000 "
#2795000
b110100 &
b100010 #
#2805000
b110101 &
#2815000
b110110 &
#2825000
b110111 &
#2835000
b111000 &
#2845000
b111001 &
#2855000
b111010 &
#2865000
b111011 &
#2875000
b111100 &
#2885000
b111101 &
#2895000
b111110 &
#2905000
b111111 &
#2915000
b1000000 &
#2925000
b1000001 &
#2935000
b1000010 &
#2945000
b1000011 &
#2955000
b1000100 &
#2965000
b1000101 &
b100011 #
#2975000
b1000110 &
#2985000
b1000111 &
#2995000
b1001000 &
#3005000
b1001001 &
#3015000
b1001010 &
#3025000
b1001011 &
#3035000
b1001100 &
#3045000
b1001101 &
#3055000
b1001110 &
#3065000
b1001111 &
#3075000
b1010000 &
#3085000
b1010001 &
#3095000
b1010010 &
#3105000
b1010011 &
#3115000
b1010100 &
#3125000
b1010101 &
#3135000
b1010110 &
b100100 #
#3145000
b1010111 &
#3155000
b1011000 &
#3165000
b1011001 &
b100101 #
#3175000
b1011010 &
#3185000
b1011011 &
b11 %
#3195000
b1011100 &
b100110 #
#3205000
b11110 #
b10111 &
#3215000
b11000 &
#3225000
b11001 &
#3235000
b11010 &
b100000 #
#3245000
b11011 &
#3255000
b11100 &
#3265000
b11101 &
b100001 #
#3275000
b11110 &
#3285000
b11111 &
#3295000
b100000 &
#3305000
b100001 &
#3315000
b100010 &
#3325000
b100011 &
#3335000
b100100 &
#3345000
b100101 &
#3355000
b100110 &
#3365000
b100111 &
#3375000
b101000 &
#3385000
b101001 &
#3395000
b101010 &
#3405000
b101011 &
#3415000
b101100 &
#3425000
b101101 &
#3435000
b101110 &
#3445000
b101111 &
#3455000
b110000 &
#3465000
b110001 &
#3475000
b110010 &
#3485000
b110011 &
b10000000001100110100100000000000000001000000000000000000000 "
#3495000
b110100 &
b100010 #
#3505000
b110101 &
#3515000
b110110 &
#3525000
b110111 &
#3535000
b111000 &
#3545000
b111001 &
#3555000
b111010 &
#3565000
b111011 &
#3575000
b111100 &
#3585000
b111101 &
#3595000
b111110 &
#3605000
b111111 &
#3615000
b1000000 &
#3625000
b1000001 &
#3635000
b1000010 &
#3645000
b1000011 &
#3655000
b1000100 &
#3665000
b1000101 &
b100011 #
#3675000
b1000110 &
#3685000
b1000111 &
#3695000
b1001000 &
#3705000
b1001001 &
#3715000
b1001010 &
#3725000
b1001011 &
#3735000
b1001100 &
#3745000
b1001101 &
#3755000
b1001110 &
#3765000
b1001111 &
#3775000
b1010000 &
#3785000
b1010001 &
#3795000
b1010010 &
#3805000
b1010011 &
#3815000
b1010100 &
#3825000
b1010101 &
#3835000
b1010110 &
b100100 #
#3845000
b1010111 &
#3855000
b1011000 &
#3865000
b1011001 &
b100101 #
#3875000
b1011010 &
#3885000
b1011011 &
b100 %
#3895000
b1011100 &
b100110 #
#3905000
b11110 #
b10111 &
#3915000
b11000 &
#3925000
b11001 &
#3935000
b1011101 &
b100111 #
#3945000
b100 (
b1011110 &
#3955000
b1011111 &
b101000 #
#3965000
b1100000 &
#3975000
b1100001 &
#3985000
b1100010 &
b101001 #
#3995000
b11011 #
b10010 &
#4005000
b10011 &
#4015000
b10100 &
#4025000
b1100011 &
b101010 #
#4035000
b1100100 &
#4045000
b1100101 &
b101011 #
#4055000
b10101 #
b110 &
#4065000
b111 &
#4075000
b1000 &
#4085000
b1001 &
b10111 #
#4095000
b1010 &
#4105000
b1011 &
#4115000
b1100 &
b11000 #
#4125000
b1101 &
#4135000
b1110 &
b11001 #
#4145000
b1111 &
b0 %
#4155000
b11010 #
b10000 &
#4165000
b10001 &
b0 (
#4175000
b10010 &
b11011 #
#4185000
b10011 &
#4195000
b10100 &
#4205000
b10101 &
b11101 #
#4215000
b10110 &
#4225000
b10111 &
b11110 #
#4235000
b11000 &
#4245000
b11001 &
#4255000
b11010 &
b100000 #
#4265000
b11011 &
#4275000
b11100 &
#4285000
b11101 &
b100001 #
#4295000
b11110 &
#4305000
b11111 &
#4315000
b100000 &
#4325000
b100001 &
#4335000
b100010 &
#4345000
b100011 &
#4355000
b100100 &
#4365000
b100101 &
#4375000
b100110 &
#4385000
b100111 &
#4395000
b101000 &
#4405000
b101001 &
#4415000
b101010 &
#4425000
b101011 &
#4435000
b101100 &
#4445000
b101101 &
#4455000
b101110 &
#4465000
b101111 &
#4475000
b110000 &
#4485000
b110001 &
#4495000
b110010 &
#4505000
b110011 &
b10000000001100110100101000000000000001000000000000000000000 "
#4515000
b110100 &
b100010 #
#4525000
b110101 &
#4535000
b110110 &
#4545000
b110111 &
#4555000
b111000 &
#4565000
b111001 &
#4575000
b111010 &
#4585000
b111011 &
#4595000
b111100 &
#4605000
b111101 &
#4615000
b111110 &
#4625000
b111111 &
#4635000
b1000000 &
#4645000
b1000001 &
#4655000
b1000010 &
#4665000
b1000011 &
#4675000
b1000100 &
#4685000
b1000101 &
b100011 #
#4695000
b1000110 &
#4705000
b1000111 &
#4715000
b1001000 &
#4725000
b1001001 &
#4735000
b1001010 &
#4745000
b1001011 &
#4755000
b1001100 &
#4765000
b1001101 &
#4775000
b1001110 &
#4785000
b1001111 &
#4795000
b1010000 &
#4805000
b1010001 &
#4815000
b1010010 &
#4825000
b1010011 &
#4835000
b1010100 &
#4845000
b1010101 &
#4855000
b1010110 &
b100100 #
#4865000
b1010111 &
#4875000
b1011000 &
#4885000
b1011001 &
b100101 #
#4895000
b1011010 &
#4905000
b1011011 &
b1 %
#4915000
b1011100 &
b100110 #
#4925000
b11110 #
b10111 &
#4935000
b11000 &
#4945000
b11001 &
#4955000
b11010 &
b100000 #
#4965000
b11011 &
#4975000
b11100 &
#4985000
b11101 &
b100001 #
#4995000
b11110 &
#5005000
b11111 &
#5015000
b100000 &
#5025000
b100001 &
#5035000
b100010 &
#5045000
b100011 &
#5055000
b100100 &
#5065000
b100101 &
#5075000
b100110 &
#5085000
b100111 &
#5095000
b101000 &
#5105000
b101001 &
#5115000
b101010 &
#5125000
b101011 &
#5135000
b101100 &
#5145000
b101101 &
#5155000
b101110 &
#5165000
b101111 &
#5175000
b110000 &
#5185000
b110001 &
#5195000
b110010 &
#5205000
b110011 &
b10000000001100110100110000000000000001000000000000000000000 "
#5215000
b110100 &
b100010 #
#5225000
b110101 &
#5235000
b110110 &
#5245000
b110111 &
#5255000
b111000 &
#5265000
b111001 &
#5275000
b111010 &
#5285000
b111011 &
#5295000
b111100 &
#5305000
b111101 &
#5315000
b111110 &
#5325000
b111111 &
#5335000
b1000000 &
#5345000
b1000001 &
#5355000
b1000010 &
#5365000
b1000011 &
#5375000
b1000100 &
#5385000
b1000101 &
b100011 #
#5395000
b1000110 &
#5405000
b1000111 &
#5415000
b1001000 &
#5425000
b1001001 &
#5435000
b1001010 &
#5445000
b1001011 &
#5455000
b1001100 &
#5465000
b1001101 &
#5475000
b1001110 &
#5485000
b1001111 &
#5495000
b1010000 &
#5505000
b1010001 &
#5515000
b1010010 &
#5525000
b1010011 &
#5535000
b1010100 &
#5545000
b1010101 &
#5555000
b1010110 &
b100100 #
#5565000
b1010111 &
#5575000
b1011000 &
#5585000
b1011001 &
b100101 #
#5595000
b1011010 &
#5605000
b1011011 &
b10 %
#5615000
b1011100 &
b100110 #
#5625000
b11110 #
b10111 &
#5635000
b11000 &
#5645000
b11001 &
#5655000
b1011101 &
b100111 #
#5665000
b1011110 &
b10 (
#5675000
b1011111 &
b101000 #
#5685000
b1100000 &
#5695000
b1100001 &
#5705000
b1100010 &
b101001 #
#5715000
b11011 #
b10010 &
#5725000
b10011 &
#5735000
b10100 &
#5745000
b10101 &
b11101 #
#5755000
b10110 &
#5765000
b10111 &
b11110 #
#5775000
b11000 &
#5785000
b11001 &
#5795000
b11010 &
b100000 #
#5805000
b11011 &
#5815000
b11100 &
#5825000
b11101 &
b100001 #
#5835000
b11110 &
#5845000
b11111 &
#5855000
b100000 &
#5865000
b100001 &
#5875000
b100010 &
#5885000
b100011 &
#5895000
b100100 &
#5905000
b100101 &
#5915000
b100110 &
#5925000
b100111 &
#5935000
b101000 &
#5945000
b101001 &
#5955000
b101010 &
#5965000
b101011 &
#5975000
b101100 &
#5985000
b101101 &
#5995000
b101110 &
#6005000
b101111 &
#6015000
b110000 &
#6025000
b110001 &
#6035000
b110010 &
b10000000001100110100110000000000000011100111000000000000000 "
#6045000
b10000000001100100000000000000000000011100111000000000000000 "
b110011 &
#6055000
b110100 &
b100010 #
#6065000
b110101 &
#6075000
b110110 &
#6085000
b110111 &
#6095000
b111000 &
#6105000
b111001 &
#6115000
b111010 &
#6125000
b111011 &
#6135000
b111100 &
#6145000
b111101 &
#6155000
b111110 &
#6165000
b111111 &
#6175000
b1000000 &
#6185000
b1000001 &
#6195000
b1000010 &
#6205000
b1000011 &
#6215000
b1000100 &
#6225000
b1000101 &
b100011 #
#6235000
b1000110 &
#6245000
b1000111 &
#6255000
b1001000 &
#6265000
b1001001 &
#6275000
b1001010 &
#6285000
b1001011 &
#6295000
b1001100 &
#6305000
b1001101 &
#6315000
b1001110 &
#6325000
b1001111 &
#6335000
b1010000 &
#6345000
b1010001 &
#6355000
b1010010 &
#6365000
b1010011 &
#6375000
b1010100 &
#6385000
b1010101 &
#6395000
b1010110 &
b100100 #
#6405000
b1010111 &
#6415000
b1011000 &
#6425000
b1011001 &
b100101 #
#6435000
b1011010 &
#6445000
b1011011 &
b11 %
#6455000
b1011100 &
b100110 #
#6465000
b11110 #
b10111 &
#6475000
b11000 &
#6485000
b11001 &
#6495000
b11010 &
b100000 #
#6505000
b11011 &
#6515000
b11100 &
#6525000
b11101 &
b100001 #
#6535000
b11110 &
#6545000
b11111 &
#6555000
b100000 &
#6565000
b100001 &
#6575000
b100010 &
#6585000
b100011 &
#6595000
b100100 &
#6605000
b100101 &
#6615000
b100110 &
#6625000
b100111 &
#6635000
b101000 &
#6645000
b101001 &
#6655000
b101010 &
#6665000
b101011 &
#6675000
b101100 &
#6685000
b101101 &
#6695000
b101110 &
#6705000
b101111 &
#6715000
b110000 &
#6725000
b110001 &
#6735000
b110010 &
#6745000
b110011 &
#6755000
b110100 &
b100010 #
#6765000
b110101 &
#6775000
b110110 &
#6785000
b110111 &
#6795000
b111000 &
#6805000
b111001 &
#6815000
b111010 &
#6825000
b111011 &
#6835000
b111100 &
#6845000
b111101 &
#6855000
b111110 &
#6865000
b111111 &
#6875000
b1000000 &
#6885000
b1000001 &
#6895000
b1000010 &
#6905000
b1000011 &
#6915000
b1000100 &
#6925000
b1000101 &
b100011 #
#6935000
b1000110 &
#6945000
b1000111 &
#6955000
b1001000 &
#6965000
b1001001 &
#6975000
b1001010 &
#6985000
b1001011 &
#6995000
b1001100 &
#7005000
b1001101 &
#7015000
b1001110 &
#7025000
b1001111 &
#7035000
b1010000 &
#7045000
b1010001 &
#7055000
b1010010 &
#7065000
b1010011 &
#7075000
b1010100 &
#7085000
b1010101 &
#7095000
b1010110 &
b100100 #
#7105000
b1010111 &
#7115000
b1011000 &
#7125000
b1011001 &
b100101 #
#7135000
b1011010 &
#7145000
b1011011 &
b100 %
#7155000
b1011100 &
b100110 #
#7165000
b11110 #
b10111 &
#7175000
b11000 &
#7185000
b11001 &
#7195000
b1011101 &
b100111 #
#7205000
b1011110 &
b100 (
#7215000
b1011111 &
b101000 #
#7225000
b1100000 &
#7235000
b1100001 &
#7245000
b1100010 &
b101001 #
#7255000
b11011 #
b10010 &
#7265000
b10011 &
#7275000
b10100 &
#7285000
b1100011 &
b101010 #
#7295000
b1100100 &
#7305000
b1100101 &
b101011 #
#7315000
b10101 #
b110 &
#7325000
b111 &
#7335000
b1000 &
#7345000
b1001 &
b10111 #
#7355000
b1010 &
#7365000
b1011 &
#7375000
b1100 &
b11000 #
#7385000
b1101 &
#7395000
b1110 &
b11001 #
#7405000
b0 %
b1111 &
#7415000
b10000 &
b11010 #
#7425000
b10001 &
b0 (
#7435000
b11011 #
b10010 &
#7445000
b10011 &
#7455000
b10100 &
#7465000
b10101 &
b11101 #
#7475000
b10110 &
#7485000
b10111 &
b11110 #
#7495000
b11000 &
#7505000
b11001 &
#7515000
b11010 &
b100000 #
#7525000
b11011 &
#7535000
b11100 &
#7545000
b11101 &
b100001 #
#7555000
b11110 &
#7565000
b11111 &
#7575000
b100000 &
#7585000
b100001 &
#7595000
b100010 &
#7605000
b100011 &
#7615000
b100100 &
#7625000
b100101 &
#7635000
b100110 &
#7645000
b100111 &
#7655000
b101000 &
#7665000
b101001 &
#7675000
b101010 &
#7685000
b101011 &
#7695000
b101100 &
#7705000
b101101 &
#7715000
b101110 &
#7725000
b101111 &
#7735000
b110000 &
#7745000
b110001 &
#7755000
b110010 &
b10000000001100100000000000000000000001000000000000000000000 "
#7765000
b10000000001100110101101000000000000001000000000000000000000 "
b110011 &
#7775000
b110100 &
b100010 #
#7785000
b110101 &
#7795000
b110110 &
#7805000
b110111 &
#7815000
b111000 &
#7825000
b111001 &
#7835000
b111010 &
#7845000
b111011 &
#7855000
b111100 &
#7865000
b111101 &
#7875000
b111110 &
#7885000
b111111 &
#7895000
b1000000 &
#7905000
b1000001 &
#7915000
b1000010 &
#7925000
b1000011 &
#7935000
b1000100 &
#7945000
b1000101 &
b100011 #
#7955000
b1000110 &
#7965000
b1000111 &
#7975000
b1001000 &
#7985000
b1001001 &
#7995000
b1001010 &
#8005000
b1001011 &
#8015000
b1001100 &
#8025000
b1001101 &
#8035000
b1001110 &
#8045000
b1001111 &
#8055000
b1010000 &
#8065000
b1010001 &
#8075000
b1010010 &
#8085000
b1010011 &
#8095000
b1010100 &
#8105000
b1010101 &
#8115000
b1010110 &
b100100 #
#8125000
b1010111 &
#8135000
b1011000 &
#8145000
b1011001 &
b100101 #
#8155000
b1011010 &
#8165000
b1011011 &
b1 %
#8175000
b1011100 &
b100110 #
#8185000
b11110 #
b10111 &
#8195000
b11000 &
#8205000
b11001 &
#8215000
b1011101 &
b100111 #
#8225000
b1 (
b1011110 &
#8235000
b1011111 &
b101000 #
#8245000
b1100000 &
#8255000
b1100001 &
#8265000
b1100010 &
b101001 #
#8275000
b11011 #
b10010 &
#8285000
b10011 &
#8295000
b10100 &
#8305000
b10101 &
b11101 #
#8315000
b10110 &
#8325000
b10111 &
b11110 #
#8335000
b11000 &
#8345000
b11001 &
#8355000
b11010 &
b100000 #
#8365000
b11011 &
#8375000
b11100 &
#8385000
b11101 &
b100001 #
#8395000
b11110 &
#8405000
b11111 &
#8415000
b100000 &
#8425000
b100001 &
#8435000
b100010 &
#8445000
b100011 &
#8455000
b100100 &
#8465000
b100101 &
#8475000
b100110 &
#8485000
b100111 &
#8495000
b101000 &
#8505000
b101001 &
#8515000
b101010 &
#8525000
b101011 &
#8535000
b101100 &
#8545000
b101101 &
#8555000
b101110 &
#8565000
b101111 &
#8575000
b110000 &
#8585000
b110001 &
#8595000
b110010 &
b10000000001100110101101000000000000011100111011010100000100 "
#8605000
b10000000001100100000000000000000000011100111011010100000100 "
b110011 &
#8615000
b110100 &
b100010 #
#8625000
b110101 &
#8635000
b110110 &
#8645000
b110111 &
#8655000
b111000 &
#8665000
b111001 &
#8675000
b111010 &
#8685000
b111011 &
#8695000
b111100 &
#8705000
b111101 &
#8715000
b111110 &
#8725000
b111111 &
#8735000
b1000000 &
#8745000
b1000001 &
#8755000
b1000010 &
#8765000
b1000011 &
#8775000
b1000100 &
#8785000
b1000101 &
b100011 #
#8795000
b1000110 &
#8805000
b1000111 &
#8815000
b1001000 &
#8825000
b1001001 &
#8835000
b1001010 &
#8845000
b1001011 &
#8855000
b1001100 &
#8865000
b1001101 &
#8875000
b1001110 &
#8885000
b1001111 &
#8895000
b1010000 &
#8905000
b1010001 &
#8915000
b1010010 &
#8925000
b1010011 &
#8935000
b1010100 &
#8945000
b1010101 &
#8955000
b1010110 &
b100100 #
#8965000
b1010111 &
#8975000
b1011000 &
#8985000
b1011001 &
b100101 #
#8995000
b1011010 &
#9005000
b1011011 &
b10 %
#9015000
b100110 #
b1011100 &
#9025000
b10111 &
b11110 #
#9035000
b11000 &
#9045000
b11001 &
#9055000
b1011101 &
b100111 #
#9065000
b1011110 &
b10 (
#9075000
b1011111 &
b101000 #
#9085000
b1100000 &
#9095000
b1100001 &
#9105000
b1100010 &
b101001 #
#9115000
b11011 #
b10010 &
#9125000
b10011 &
#9135000
b10100 &
#9145000
b10101 &
b11101 #
#9155000
b10110 &
#9165000
b10111 &
b11110 #
#9175000
b11000 &
#9185000
b11001 &
#9195000
b11010 &
b100000 #
#9205000
b11011 &
#9215000
b11100 &
#9225000
b11101 &
b100001 #
#9235000
b11110 &
#9245000
b11111 &
#9255000
b100000 &
#9265000
b100001 &
#9275000
b100010 &
#9285000
b100011 &
#9295000
b100100 &
#9305000
b100101 &
#9315000
b100110 &
#9325000
b100111 &
#9335000
b101000 &
#9345000
b101001 &
#9355000
b101010 &
#9365000
b101011 &
#9375000
b101100 &
#9385000
b101101 &
#9395000
b101110 &
#9405000
b101111 &
#9415000
b110000 &
#9425000
b110001 &
#9435000
b110010 &
b10000000001100100000000000000000000011100111000000000000000 "
#9445000
b110011 &
#9455000
b110100 &
b100010 #
#9465000
b110101 &
#9475000
b110110 &
#9485000
b110111 &
#9495000
b111000 &
#9505000
b111001 &
#9515000
b111010 &
#9525000
b111011 &
#9535000
b111100 &
#9545000
b111101 &
#9555000
b111110 &
#9565000
b111111 &
#9575000
b1000000 &
#9585000
b1000001 &
#9595000
b1000010 &
#9605000
b1000011 &
#9615000
b1000100 &
#9625000
b1000101 &
b100011 #
#9635000
b1000110 &
#9645000
b1000111 &
#9655000
b1001000 &
#9665000
b1001001 &
#9675000
b1001010 &
#9685000
b1001011 &
#9695000
b1001100 &
#9705000
b1001101 &
#9715000
b1001110 &
#9725000
b1001111 &
#9735000
b1010000 &
#9745000
b1010001 &
#9755000
b1010010 &
#9765000
b1010011 &
#9775000
b1010100 &
#9785000
b1010101 &
#9795000
b1010110 &
b100100 #
#9805000
b1010111 &
#9815000
b1011000 &
#9825000
b1011001 &
b100101 #
#9835000
b1011010 &
#9845000
b1011011 &
b11 %
#9855000
b1011100 &
b100110 #
#9865000
b11110 #
b10111 &
#9875000
b11000 &
#9885000
b11001 &
#9895000
b1011101 &
b100111 #
#9905000
b1011110 &
b11 (
#9915000
b1011111 &
b101000 #
#9925000
b1100000 &
#9935000
b1100001 &
#9945000
b1100010 &
b101001 #
#9955000
b11011 #
b10010 &
#9965000
b10011 &
#9975000
b10100 &
#9985000
b10101 &
b11101 #
#9995000
b10110 &
#10005000
b10111 &
b11110 #
#10015000
b11000 &
#10025000
b11001 &
#10035000
b11010 &
b100000 #
#10045000
b11011 &
#10055000
b11100 &
#10065000
b11101 &
b100001 #
#10075000
b11110 &
#10085000
b11111 &
#10095000
b100000 &
#10105000
b100001 &
#10115000
b100010 &
#10125000
b100011 &
#10135000
b100100 &
#10145000
b100101 &
#10155000
b100110 &
#10165000
b100111 &
#10175000
b101000 &
#10185000
b101001 &
#10195000
b101010 &
#10205000
b101011 &
#10215000
b101100 &
#10225000
b101101 &
#10235000
b101110 &
#10245000
b101111 &
#10255000
b110000 &
#10265000
b110001 &
#10275000
b110010 &
b10000000001100100000000000000000000011100111011010100000100 "
#10285000
b110011 &
#10295000
b110100 &
b100010 #
#10305000
b110101 &
#10315000
b110110 &
#10325000
b110111 &
#10335000
b111000 &
#10345000
b111001 &
#10355000
b111010 &
#10365000
b111011 &
#10375000
b111100 &
#10385000
b111101 &
#10395000
b111110 &
#10405000
b111111 &
#10415000
b1000000 &
#10425000
b1000001 &
#10435000
b1000010 &
#10445000
b1000011 &
#10455000
b1000100 &
#10465000
b1000101 &
b100011 #
#10475000
b1000110 &
#10485000
b1000111 &
#10495000
b1001000 &
#10505000
b1001001 &
#10515000
b1001010 &
#10525000
b1001011 &
#10535000
b1001100 &
#10545000
b1001101 &
#10555000
b1001110 &
#10565000
b1001111 &
#10575000
b1010000 &
#10585000
b1010001 &
#10595000
b1010010 &
#10605000
b1010011 &
#10615000
b1010100 &
#10625000
b1010101 &
#10635000
b1010110 &
b100100 #
#10645000
b1010111 &
#10655000
b1011000 &
#10665000
b1011001 &
b100101 #
#10675000
b1011010 &
#10685000
b1011011 &
b100 %
#10695000
b1011100 &
b100110 #
#10705000
b11110 #
b10111 &
#10715000
b11000 &
#10725000
b11001 &
#10735000
b1011101 &
b100111 #
#10745000
b1011110 &
b100 (
#10755000
b1011111 &
b101000 #
#10765000
b1100000 &
#10775000
b1100001 &
#10785000
b1100010 &
b101001 #
#10795000
b11011 #
b10010 &
#10805000
b10011 &
#10815000
b10100 &
#10825000
b1100011 &
b101010 #
#10835000
b1100100 &
#10845000
b1100101 &
b101011 #
#10855000
b10101 #
b110 &
#10865000
b111 &
#10875000
b1000 &
#10885000
b1100110 &
b101100 #
#10895000
b1000001 #
b10111101 &
#10905000
b10111110 &
#10915000
b10111111 &
#10925000
b11000000 &
#10935000
b11000001 &
#10945000
b11000010 &
#10955000
b11000011 &
#10965000
b11000100 &
#10975000
b11000101 &
b1000010 #
#10985000
b11000110 &
#10995000
b11000111 &
#11005000
b11001000 &
#11015000
b11001001 &
#11025000
b11001010 &
#11035000
b11001011 &
#11045000
b11001100 &
#11055000
b11001101 &
#11065000
b11001110 &
b1000011 #
#11075000
b11001111 &
#11085000
b11010000 &
#11095000
b11010001 &
#11105000
b11010010 &
#11115000
b11010011 &
#11125000
b11010100 &
#11135000
b11010101 &
#11145000
b11010110 &
b1000100 #
#11155000
b11010111 &
#11165000
b11011000 &
#11175000
b11011001 &
#11185000
b11011010 &
#11195000
b11011011 &
#11205000
b11011100 &
#11215000
b11011101 &
#11225000
b11011110 &
b11111111101101001000111 '
#11235000
b11011111 &
b1000101 #
#11245000
b11100000 &
#11255000
b11100001 &
#11265000
b11100010 &
#11275000
b11100011 &
#11285000
b11100100 &
#11295000
b11100101 &
#11305000
b11100110 &
#11315000
b11100111 &
b1000110 #
#11325000
b11101000 &
#11335000
b11101001 &
#11345000
b11101010 &
#11355000
b11101011 &
#11365000
b11101100 &
#11375000
b11101101 &
#11385000
b11101110 &
